<svg width="18" height="18" viewBox="0 0 18 18" fill="none" xmlns="http://www.w3.org/2000/svg">
<path d="M7 0V7H0" stroke="white" stroke-width="2"/>
<path d="M18 7H11V0" stroke="white" stroke-width="2"/>
<path d="M11 18V11H18" stroke="white" stroke-width="2"/>
<path d="M0 11H7V18" stroke="white" stroke-width="2"/>
</svg>
